<svg xmlns="http://www.w3.org/2000/svg" xmlns:xlink="http://www.w3.org/1999/xlink" width="879.994" height="701.995" viewBox="0 0 879.994 701.995">
  <defs>
    <linearGradient id="linear-gradient" x1="0.548" y1="0.5" x2="0.18" y2="0.874" gradientUnits="objectBoundingBox">
      <stop offset="0" stop-color="#2c2b30"/>
      <stop offset="1" stop-color="#4f4f51"/>
    </linearGradient>
  </defs>
  <path id="bg-circle-lg" d="M-.006,581.435V0H-855.482A540.618,540.618,0,0,0-880,161.5C-880,460.012-638.236,702-340,702A537.438,537.438,0,0,0-.006,581.435Z" transform="translate(880 -0.005)" opacity="0.2" fill="url(#linear-gradient)"/>
</svg>
