<svg xmlns="http://www.w3.org/2000/svg" width="91" height="133" viewBox="0 0 91 133">
  <path id="squre" d="M45.5,133,0,86.99,20.264,66.5,0,46.008,45.5,0,91,46.008,70.736,66.5,91,86.99,45.5,133h0Zm-16.789-24L45.5,125.971l16.788-16.977L45.5,92.019Zm37.052-3.512L84.051,86.99,67.262,70.013,48.976,88.5ZM6.949,86.99l18.287,18.492L42.025,88.5,23.739,70.013Zm38.552-2L63.787,66.5,45.5,48.008,27.213,66.5,45.5,84.99h0ZM6.949,46.008l16.79,16.978L45.5,40.981,67.261,62.986l16.79-16.978L45.5,7.027Z" fill="#4f4f51"/>
</svg>
